MIPS_32/isim.log
ISim log file
Running: C:\Users\skrim\Documents\GitHub\mips64-verilog\MIPS_32\topTest_isim_beh.exe -intstyle ise -gui -tclbatch isim.cmd -view C:/Users/skrim/Documents/GitHub/mips64-verilog/MIPS_32/testConfigP.wcfg -wdb C:/Users/skrim/Documents/GitHub/mips64-verilog/MIPS_32/topTest_isim_beh.wdb 
ISim O.61xd (signature 0x1cce1bb2)
This is a Full version of ISim.
Time resolution is 1 ps
# onerror resume
# run 50 ns
Simulator is doing circuit initialization process.
Finished circuit initialization process.
Cycle =   1,	 Instruction = 00000000000000000000000000000000,	 ALU_a =          x,	 ALU_b =         x,	 Data_out =         0,	 Data_mem =         x
Cycle =   1,	 Instruction = 00000000000000000000000000000000,	 ALU_a =          0,	 ALU_b =         0,	 Data_out =         0,	 Data_mem =         x
Cycle =   2,	 Instruction = 00000000000000000000000000000000,	 ALU_a =          0,	 ALU_b =         0,	 Data_out =         0,	 Data_mem =         x
Cycle =   3,	 Instruction = 00000000000000000000000000000000,	 ALU_a =          0,	 ALU_b =         0,	 Data_out =         0,	 Data_mem =         x
Cycle =   4,	 Instruction = 00000000000000000000000000000000,	 ALU_a =          0,	 ALU_b =         0,	 Data_out =         0,	 Data_mem =         x
Cycle =   5,	 Instruction = 00100000000100000000000000000001,	 ALU_a =          0,	 ALU_b =         1,	 Data_out =         1,	 Data_mem =         x
Cycle =   6,	 Instruction = 00100000000100010000000000000010,	 ALU_a =          0,	 ALU_b =         2,	 Data_out =         2,	 Data_mem =         x
Cycle =   7,	 Instruction = 00000010000100011001000000100000,	 ALU_a =          0,	 ALU_b =         0,	 Data_out =         0,	 Data_mem =         x
Cycle =   7,	 Instruction = 00000010000100011001000000100000,	 ALU_a =          1,	 ALU_b =         2,	 Data_out =         3,	 Data_mem =         x
Cycle =   8,	 Instruction = 10101100000100100000000000000000,	 ALU_a =          1,	 ALU_b =         0,	 Data_out =         1,	 Data_mem =         x
Cycle =   8,	 Instruction = 10101100000100100000000000000000,	 ALU_a =          0,	 ALU_b =         0,	 Data_out =         0,	 Data_mem =         x
Cycle =   9,	 Instruction = 00000000000000000000000000000000,	 ALU_a =          0,	 ALU_b =         0,	 Data_out =         0,	 Data_mem =         0
Cycle =  10,	 Instruction = 00000000000000000000000000000000,	 ALU_a =          0,	 ALU_b =         0,	 Data_out =         0,	 Data_mem =         0
Cycle =  11,	 Instruction = 00000000000000000000000000000000,	 ALU_a =          0,	 ALU_b =         0,	 Data_out =         0,	 Data_mem =         0
Cycle =  12,	 Instruction = 00000000000000000000000000000000,	 ALU_a =          0,	 ALU_b =         0,	 Data_out =         0,	 Data_mem =         0
Cycle =  13,	 Instruction = 00000000000000000000000000000000,	 ALU_a =          0,	 ALU_b =         0,	 Data_out =         0,	 Data_mem =         0
Cycle =  14,	 Instruction = 00000000000000000000000000000000,	 ALU_a =          0,	 ALU_b =         0,	 Data_out =         0,	 Data_mem =         0
Cycle =  15,	 Instruction = 00000000000000000000000000000000,	 ALU_a =          0,	 ALU_b =         0,	 Data_out =         0,	 Data_mem =         0
Cycle =  16,	 Instruction = 00000000000000000000000000000000,	 ALU_a =          0,	 ALU_b =         0,	 Data_out =         0,	 Data_mem =         0
Cycle =  17,	 Instruction = 00000000000000000000000000000000,	 ALU_a =          0,	 ALU_b =         0,	 Data_out =         0,	 Data_mem =         0
Cycle =  18,	 Instruction = 00000000000000000000000000000000,	 ALU_a =          0,	 ALU_b =         0,	 Data_out =         0,	 Data_mem =         0
Cycle =  19,	 Instruction = 00000000000000000000000000000000,	 ALU_a =          0,	 ALU_b =         0,	 Data_out =         0,	 Data_mem =         0
Cycle =  20,	 Instruction = 00000000000000000000000000000000,	 ALU_a =          0,	 ALU_b =         0,	 Data_out =         0,	 Data_mem =         0
Cycle =  21,	 Instruction = 00000000000000000000000000000000,	 ALU_a =          0,	 ALU_b =         0,	 Data_out =         0,	 Data_mem =         0
Cycle =  22,	 Instruction = 00000000000000000000000000000000,	 ALU_a =          0,	 ALU_b =         0,	 Data_out =         0,	 Data_mem =         0
Cycle =  23,	 Instruction = 00000000000000000000000000000000,	 ALU_a =          0,	 ALU_b =         0,	 Data_out =         0,	 Data_mem =         0
Cycle =  24,	 Instruction = 00000000000000000000000000000000,	 ALU_a =          0,	 ALU_b =         0,	 Data_out =         0,	 Data_mem =         0
Cycle =  25,	 Instruction = 00000000000000000000000000000000,	 ALU_a =          0,	 ALU_b =         0,	 Data_out =         0,	 Data_mem =         0
ISim O.61xd (signature 0x1cce1bb2)
This is a Full version of ISim.
# run 50 ns
Simulator is doing circuit initialization process.
Finished circuit initialization process.
Cycle =   1,	 Instruction = 00000000000000000000000000000000,	 ALU_a =          x,	 ALU_b =         x,	 Data_out =         0,	 Data_mem =         x
Cycle =   1,	 Instruction = 00000000000000000000000000000000,	 ALU_a =          0,	 ALU_b =         0,	 Data_out =         0,	 Data_mem =         x
Cycle =   2,	 Instruction = 00000000000000000000000000000000,	 ALU_a =          0,	 ALU_b =         0,	 Data_out =         0,	 Data_mem =         x
Cycle =   3,	 Instruction = 00000000000000000000000000000000,	 ALU_a =          0,	 ALU_b =         0,	 Data_out =         0,	 Data_mem =         x
Cycle =   4,	 Instruction = 00000000000000000000000000000000,	 ALU_a =          0,	 ALU_b =         0,	 Data_out =         0,	 Data_mem =         x
Cycle =   5,	 Instruction = 00100000000100000000000000000001,	 ALU_a =          0,	 ALU_b =         1,	 Data_out =         1,	 Data_mem =         x
Cycle =   6,	 Instruction = 00100000000100010000000000000010,	 ALU_a =          0,	 ALU_b =         2,	 Data_out =         2,	 Data_mem =         x
Cycle =   7,	 Instruction = 00000010000100011001000000100000,	 ALU_a =          0,	 ALU_b =         0,	 Data_out =         0,	 Data_mem =         x
Cycle =   7,	 Instruction = 00000010000100011001000000100000,	 ALU_a =          1,	 ALU_b =         2,	 Data_out =         3,	 Data_mem =         x
Cycle =   8,	 Instruction = 10101100000100100000000000000000,	 ALU_a =          1,	 ALU_b =         0,	 Data_out =         1,	 Data_mem =         x
Cycle =   8,	 Instruction = 10101100000100100000000000000000,	 ALU_a =          0,	 ALU_b =         0,	 Data_out =         0,	 Data_mem =         x
Cycle =   9,	 Instruction = 00000000000000000000000000000000,	 ALU_a =          0,	 ALU_b =         0,	 Data_out =         0,	 Data_mem =         0
Cycle =  10,	 Instruction = 00000000000000000000000000000000,	 ALU_a =          0,	 ALU_b =         0,	 Data_out =         0,	 Data_mem =         0
Cycle =  11,	 Instruction = 00000000000000000000000000000000,	 ALU_a =          0,	 ALU_b =         0,	 Data_out =         0,	 Data_mem =         0
Cycle =  12,	 Instruction = 00000000000000000000000000000000,	 ALU_a =          0,	 ALU_b =         0,	 Data_out =         0,	 Data_mem =         0
Cycle =  13,	 Instruction = 00000000000000000000000000000000,	 ALU_a =          0,	 ALU_b =         0,	 Data_out =         0,	 Data_mem =         0
Cycle =  14,	 Instruction = 00000000000000000000000000000000,	 ALU_a =          0,	 ALU_b =         0,	 Data_out =         0,	 Data_mem =         0
Cycle =  15,	 Instruction = 00000000000000000000000000000000,	 ALU_a =          0,	 ALU_b =         0,	 Data_out =         0,	 Data_mem =         0
Cycle =  16,	 Instruction = 00000000000000000000000000000000,	 ALU_a =          0,	 ALU_b =         0,	 Data_out =         0,	 Data_mem =         0
Cycle =  17,	 Instruction = 00000000000000000000000000000000,	 ALU_a =          0,	 ALU_b =         0,	 Data_out =         0,	 Data_mem =         0
Cycle =  18,	 Instruction = 00000000000000000000000000000000,	 ALU_a =          0,	 ALU_b =         0,	 Data_out =         0,	 Data_mem =         0
Cycle =  19,	 Instruction = 00000000000000000000000000000000,	 ALU_a =          0,	 ALU_b =         0,	 Data_out =         0,	 Data_mem =         0
Cycle =  20,	 Instruction = 00000000000000000000000000000000,	 ALU_a =          0,	 ALU_b =         0,	 Data_out =         0,	 Data_mem =         0
Cycle =  21,	 Instruction = 00000000000000000000000000000000,	 ALU_a =          0,	 ALU_b =         0,	 Data_out =         0,	 Data_mem =         0
Cycle =  22,	 Instruction = 00000000000000000000000000000000,	 ALU_a =          0,	 ALU_b =         0,	 Data_out =         0,	 Data_mem =         0
Cycle =  23,	 Instruction = 00000000000000000000000000000000,	 ALU_a =          0,	 ALU_b =         0,	 Data_out =         0,	 Data_mem =         0
Cycle =  24,	 Instruction = 00000000000000000000000000000000,	 ALU_a =          0,	 ALU_b =         0,	 Data_out =         0,	 Data_mem =         0
Cycle =  25,	 Instruction = 00000000000000000000000000000000,	 ALU_a =          0,	 ALU_b =         0,	 Data_out =         0,	 Data_mem =         0
ISim O.61xd (signature 0x1cce1bb2)
This is a Full version of ISim.
# run 50 ns
Simulator is doing circuit initialization process.
Finished circuit initialization process.
Cycle =   1,	 Instruction = 00000000000000000000000000000000,	 ALU_a =          x,	 ALU_b =         x,	 Data_out =         0,	 Data_mem =         x
Cycle =   1,	 Instruction = 00000000000000000000000000000000,	 ALU_a =          0,	 ALU_b =         0,	 Data_out =         0,	 Data_mem =         x
Cycle =   2,	 Instruction = 00000000000000000000000000000000,	 ALU_a =          0,	 ALU_b =         0,	 Data_out =         0,	 Data_mem =         x
Cycle =   3,	 Instruction = 00000000000000000000000000000000,	 ALU_a =          0,	 ALU_b =         0,	 Data_out =         0,	 Data_mem =         x
Cycle =   4,	 Instruction = 00000000000000000000000000000000,	 ALU_a =          0,	 ALU_b =         0,	 Data_out =         0,	 Data_mem =         x
Cycle =   5,	 Instruction = 00100000000100000000000000000001,	 ALU_a =          0,	 ALU_b =         1,	 Data_out =         1,	 Data_mem =         x
Cycle =   6,	 Instruction = 00100000000100010000000000000010,	 ALU_a =          0,	 ALU_b =         2,	 Data_out =         2,	 Data_mem =         x
Cycle =   7,	 Instruction = 00000010000100011001000000100000,	 ALU_a =          0,	 ALU_b =         0,	 Data_out =         0,	 Data_mem =         x
Cycle =   7,	 Instruction = 00000010000100011001000000100000,	 ALU_a =          1,	 ALU_b =         2,	 Data_out =         3,	 Data_mem =         x
Cycle =   8,	 Instruction = 10101100000100100000000000000000,	 ALU_a =          1,	 ALU_b =         0,	 Data_out =         1,	 Data_mem =         x
Cycle =   8,	 Instruction = 10101100000100100000000000000000,	 ALU_a =          0,	 ALU_b =         0,	 Data_out =         0,	 Data_mem =         x
Cycle =   9,	 Instruction = 00000000000000000000000000000000,	 ALU_a =          0,	 ALU_b =         0,	 Data_out =         0,	 Data_mem =         0
Cycle =  10,	 Instruction = 00000000000000000000000000000000,	 ALU_a =          0,	 ALU_b =         0,	 Data_out =         0,	 Data_mem =         0
Cycle =  11,	 Instruction = 00000000000000000000000000000000,	 ALU_a =          0,	 ALU_b =         0,	 Data_out =         0,	 Data_mem =         0
Cycle =  12,	 Instruction = 00000000000000000000000000000000,	 ALU_a =          0,	 ALU_b =         0,	 Data_out =         0,	 Data_mem =         0
Cycle =  13,	 Instruction = 00000000000000000000000000000000,	 ALU_a =          0,	 ALU_b =         0,	 Data_out =         0,	 Data_mem =         0
Cycle =  14,	 Instruction = 00000000000000000000000000000000,	 ALU_a =          0,	 ALU_b =         0,	 Data_out =         0,	 Data_mem =         0
Cycle =  15,	 Instruction = 00000000000000000000000000000000,	 ALU_a =          0,	 ALU_b =         0,	 Data_out =         0,	 Data_mem =         0
Cycle =  16,	 Instruction = 00000000000000000000000000000000,	 ALU_a =          0,	 ALU_b =         0,	 Data_out =         0,	 Data_mem =         0
Cycle =  17,	 Instruction = 00000000000000000000000000000000,	 ALU_a =          0,	 ALU_b =         0,	 Data_out =         0,	 Data_mem =         0
Cycle =  18,	 Instruction = 00000000000000000000000000000000,	 ALU_a =          0,	 ALU_b =         0,	 Data_out =         0,	 Data_mem =         0
Cycle =  19,	 Instruction = 00000000000000000000000000000000,	 ALU_a =          0,	 ALU_b =         0,	 Data_out =         0,	 Data_mem =         0
Cycle =  20,	 Instruction = 00000000000000000000000000000000,	 ALU_a =          0,	 ALU_b =         0,	 Data_out =         0,	 Data_mem =         0
Cycle =  21,	 Instruction = 00000000000000000000000000000000,	 ALU_a =          0,	 ALU_b =         0,	 Data_out =         0,	 Data_mem =         0
Cycle =  22,	 Instruction = 00000000000000000000000000000000,	 ALU_a =          0,	 ALU_b =         0,	 Data_out =         0,	 Data_mem =         0
Cycle =  23,	 Instruction = 00000000000000000000000000000000,	 ALU_a =          0,	 ALU_b =         0,	 Data_out =         0,	 Data_mem =         0
Cycle =  24,	 Instruction = 00000000000000000000000000000000,	 ALU_a =          0,	 ALU_b =         0,	 Data_out =         0,	 Data_mem =         0
Cycle =  25,	 Instruction = 00000000000000000000000000000000,	 ALU_a =          0,	 ALU_b =         0,	 Data_out =         0,	 Data_mem =         0
ISim O.61xd (signature 0x1cce1bb2)
This is a Full version of ISim.
# run 50 ns
Simulator is doing circuit initialization process.
Finished circuit initialization process.
Cycle =   1,	 Instruction = 00000000000000000000000000000000,	 ALU_a =          x,	 ALU_b =         x,	 Data_out =         0,	 Data_mem =         x
Cycle =   1,	 Instruction = 00000000000000000000000000000000,	 ALU_a =          0,	 ALU_b =         0,	 Data_out =         0,	 Data_mem =         x
Cycle =   2,	 Instruction = 00000000000000000000000000000000,	 ALU_a =          0,	 ALU_b =         0,	 Data_out =         0,	 Data_mem =         x
Cycle =   3,	 Instruction = 00000000000000000000000000000000,	 ALU_a =          0,	 ALU_b =         0,	 Data_out =         0,	 Data_mem =         x
Cycle =   4,	 Instruction = 00000000000000000000000000000000,	 ALU_a =          0,	 ALU_b =         0,	 Data_out =         0,	 Data_mem =         x
Cycle =   5,	 Instruction = 00100000000100000000000000000001,	 ALU_a =          0,	 ALU_b =         1,	 Data_out =         1,	 Data_mem =         x
Cycle =   6,	 Instruction = 00100000000100010000000000000010,	 ALU_a =          0,	 ALU_b =         2,	 Data_out =         2,	 Data_mem =         x
Cycle =   7,	 Instruction = 00000010000100011001000000100000,	 ALU_a =          0,	 ALU_b =         0,	 Data_out =         0,	 Data_mem =         x
Cycle =   7,	 Instruction = 00000010000100011001000000100000,	 ALU_a =          1,	 ALU_b =         2,	 Data_out =         3,	 Data_mem =         x
Cycle =   8,	 Instruction = 10101100000100100000000000000000,	 ALU_a =          1,	 ALU_b =         0,	 Data_out =         1,	 Data_mem =         x
Cycle =   8,	 Instruction = 10101100000100100000000000000000,	 ALU_a =          0,	 ALU_b =         0,	 Data_out =         0,	 Data_mem =         x
Cycle =   9,	 Instruction = 00000000000000000000000000000000,	 ALU_a =          0,	 ALU_b =         0,	 Data_out =         0,	 Data_mem =         0
Cycle =  10,	 Instruction = 00000000000000000000000000000000,	 ALU_a =          0,	 ALU_b =         0,	 Data_out =         0,	 Data_mem =         0
Cycle =  11,	 Instruction = 00000000000000000000000000000000,	 ALU_a =          0,	 ALU_b =         0,	 Data_out =         0,	 Data_mem =         0
Cycle =  12,	 Instruction = 00000000000000000000000000000000,	 ALU_a =          0,	 ALU_b =         0,	 Data_out =         0,	 Data_mem =         0
Cycle =  13,	 Instruction = 00000000000000000000000000000000,	 ALU_a =          0,	 ALU_b =         0,	 Data_out =         0,	 Data_mem =         0
Cycle =  14,	 Instruction = 00000000000000000000000000000000,	 ALU_a =          0,	 ALU_b =         0,	 Data_out =         0,	 Data_mem =         0
Cycle =  15,	 Instruction = 00000000000000000000000000000000,	 ALU_a =          0,	 ALU_b =         0,	 Data_out =         0,	 Data_mem =         0
Cycle =  16,	 Instruction = 00000000000000000000000000000000,	 ALU_a =          0,	 ALU_b =         0,	 Data_out =         0,	 Data_mem =         0
Cycle =  17,	 Instruction = 00000000000000000000000000000000,	 ALU_a =          0,	 ALU_b =         0,	 Data_out =         0,	 Data_mem =         0
Cycle =  18,	 Instruction = 00000000000000000000000000000000,	 ALU_a =          0,	 ALU_b =         0,	 Data_out =         0,	 Data_mem =         0
Cycle =  19,	 Instruction = 00000000000000000000000000000000,	 ALU_a =          0,	 ALU_b =         0,	 Data_out =         0,	 Data_mem =         0
Cycle =  20,	 Instruction = 00000000000000000000000000000000,	 ALU_a =          0,	 ALU_b =         0,	 Data_out =         0,	 Data_mem =         0
Cycle =  21,	 Instruction = 00000000000000000000000000000000,	 ALU_a =          0,	 ALU_b =         0,	 Data_out =         0,	 Data_mem =         0
Cycle =  22,	 Instruction = 00000000000000000000000000000000,	 ALU_a =          0,	 ALU_b =         0,	 Data_out =         0,	 Data_mem =         0
Cycle =  23,	 Instruction = 00000000000000000000000000000000,	 ALU_a =          0,	 ALU_b =         0,	 Data_out =         0,	 Data_mem =         0
Cycle =  24,	 Instruction = 00000000000000000000000000000000,	 ALU_a =          0,	 ALU_b =         0,	 Data_out =         0,	 Data_mem =         0
Cycle =  25,	 Instruction = 00000000000000000000000000000000,	 ALU_a =          0,	 ALU_b =         0,	 Data_out =         0,	 Data_mem =         0
ISim O.61xd (signature 0x1cce1bb2)
This is a Full version of ISim.
# run 50 ns
Simulator is doing circuit initialization process.
Finished circuit initialization process.
Cycle =   1,	 Instruction = 00000000000000000000000000000000,	 ALU_a =          x,	 ALU_b =         x,	 Data_out =         0,	 Data_mem =         x
Cycle =   1,	 Instruction = 00000000000000000000000000000000,	 ALU_a =          0,	 ALU_b =         0,	 Data_out =         0,	 Data_mem =         x
Cycle =   2,	 Instruction = 00000000000000000000000000000000,	 ALU_a =          0,	 ALU_b =         0,	 Data_out =         0,	 Data_mem =         x
Cycle =   3,	 Instruction = 00000000000000000000000000000000,	 ALU_a =          0,	 ALU_b =         0,	 Data_out =         0,	 Data_mem =         x
Cycle =   4,	 Instruction = 00000000000000000000000000000000,	 ALU_a =          0,	 ALU_b =         0,	 Data_out =         0,	 Data_mem =         x
Cycle =   5,	 Instruction = 00100000000100000000000000000001,	 ALU_a =          0,	 ALU_b =         1,	 Data_out =         1,	 Data_mem =         x
Cycle =   6,	 Instruction = 00100000000100010000000000000010,	 ALU_a =          0,	 ALU_b =         2,	 Data_out =         2,	 Data_mem =         x
Cycle =   7,	 Instruction = 00000010000100011001000000100000,	 ALU_a =          0,	 ALU_b =         0,	 Data_out =         0,	 Data_mem =         x
Cycle =   7,	 Instruction = 00000010000100011001000000100000,	 ALU_a =          1,	 ALU_b =         2,	 Data_out =         3,	 Data_mem =         x
Cycle =   8,	 Instruction = 10101100000100100000000000000000,	 ALU_a =          1,	 ALU_b =         0,	 Data_out =         1,	 Data_mem =         x
Cycle =   8,	 Instruction = 10101100000100100000000000000000,	 ALU_a =          0,	 ALU_b =         0,	 Data_out =         0,	 Data_mem =         x
Cycle =   9,	 Instruction = 00000000000000000000000000000000,	 ALU_a =          0,	 ALU_b =         0,	 Data_out =         0,	 Data_mem =         0
Cycle =  10,	 Instruction = 00000000000000000000000000000000,	 ALU_a =          0,	 ALU_b =         0,	 Data_out =         0,	 Data_mem =         0
Cycle =  11,	 Instruction = 00000000000000000000000000000000,	 ALU_a =          0,	 ALU_b =         0,	 Data_out =         0,	 Data_mem =         0
Cycle =  12,	 Instruction = 00000000000000000000000000000000,	 ALU_a =          0,	 ALU_b =         0,	 Data_out =         0,	 Data_mem =         0
Cycle =  13,	 Instruction = 00000000000000000000000000000000,	 ALU_a =          0,	 ALU_b =         0,	 Data_out =         0,	 Data_mem =         0
Cycle =  14,	 Instruction = 00000000000000000000000000000000,	 ALU_a =          0,	 ALU_b =         0,	 Data_out =         0,	 Data_mem =         0
Cycle =  15,	 Instruction = 00000000000000000000000000000000,	 ALU_a =          0,	 ALU_b =         0,	 Data_out =         0,	 Data_mem =         0
Cycle =  16,	 Instruction = 00000000000000000000000000000000,	 ALU_a =          0,	 ALU_b =         0,	 Data_out =         0,	 Data_mem =         0
Cycle =  17,	 Instruction = 00000000000000000000000000000000,	 ALU_a =          0,	 ALU_b =         0,	 Data_out =         0,	 Data_mem =         0
Cycle =  18,	 Instruction = 00000000000000000000000000000000,	 ALU_a =          0,	 ALU_b =         0,	 Data_out =         0,	 Data_mem =         0
Cycle =  19,	 Instruction = 00000000000000000000000000000000,	 ALU_a =          0,	 ALU_b =         0,	 Data_out =         0,	 Data_mem =         0
Cycle =  20,	 Instruction = 00000000000000000000000000000000,	 ALU_a =          0,	 ALU_b =         0,	 Data_out =         0,	 Data_mem =         0
Cycle =  21,	 Instruction = 00000000000000000000000000000000,	 ALU_a =          0,	 ALU_b =         0,	 Data_out =         0,	 Data_mem =         0
Cycle =  22,	 Instruction = 00000000000000000000000000000000,	 ALU_a =          0,	 ALU_b =         0,	 Data_out =         0,	 Data_mem =         0
Cycle =  23,	 Instruction = 00000000000000000000000000000000,	 ALU_a =          0,	 ALU_b =         0,	 Data_out =         0,	 Data_mem =         0
Cycle =  24,	 Instruction = 00000000000000000000000000000000,	 ALU_a =          0,	 ALU_b =         0,	 Data_out =         0,	 Data_mem =         0
Cycle =  25,	 Instruction = 00000000000000000000000000000000,	 ALU_a =          0,	 ALU_b =         0,	 Data_out =         0,	 Data_mem =         0
ISim O.61xd (signature 0x1cce1bb2)
This is a Full version of ISim.
# run 50 ns
Simulator is doing circuit initialization process.
Finished circuit initialization process.
Cycle =   1,	 Instruction = 00000000000000000000000000000000,	 ALU_a =          x,	 ALU_b =         x,	 Data_out =         0,	 Data_mem =         x
Cycle =   1,	 Instruction = 00000000000000000000000000000000,	 ALU_a =          0,	 ALU_b =         0,	 Data_out =         0,	 Data_mem =         x
Cycle =   2,	 Instruction = 00000000000000000000000000000000,	 ALU_a =          0,	 ALU_b =         0,	 Data_out =         0,	 Data_mem =         x
Cycle =   3,	 Instruction = 00000000000000000000000000000000,	 ALU_a =          0,	 ALU_b =         0,	 Data_out =         0,	 Data_mem =         x
Cycle =   4,	 Instruction = 00000000000000000000000000000000,	 ALU_a =          0,	 ALU_b =         0,	 Data_out =         0,	 Data_mem =         x
Cycle =   5,	 Instruction = 00100000000100000000000000000001,	 ALU_a =          0,	 ALU_b =         1,	 Data_out =         1,	 Data_mem =         x
Cycle =   6,	 Instruction = 00100000000100010000000000000010,	 ALU_a =          0,	 ALU_b =         2,	 Data_out =         2,	 Data_mem =         x
Cycle =   7,	 Instruction = 00000010000100011001000000100000,	 ALU_a =          0,	 ALU_b =         0,	 Data_out =         0,	 Data_mem =         x
Cycle =   7,	 Instruction = 00000010000100011001000000100000,	 ALU_a =          1,	 ALU_b =         2,	 Data_out =         3,	 Data_mem =         x
Cycle =   8,	 Instruction = 10101100000100100000000000000000,	 ALU_a =          1,	 ALU_b =         0,	 Data_out =         1,	 Data_mem =         x
Cycle =   8,	 Instruction = 10101100000100100000000000000000,	 ALU_a =          0,	 ALU_b =         0,	 Data_out =         0,	 Data_mem =         x
Cycle =   9,	 Instruction = 00000000000000000000000000000000,	 ALU_a =          0,	 ALU_b =         3,	 Data_out =         0,	 Data_mem =         3
Cycle =   9,	 Instruction = 00000000000000000000000000000000,	 ALU_a =          0,	 ALU_b =         0,	 Data_out =         0,	 Data_mem =         3
Cycle =  10,	 Instruction = 00000000000000000000000000000000,	 ALU_a =          0,	 ALU_b =         0,	 Data_out =         0,	 Data_mem =         3
Cycle =  11,	 Instruction = 00000000000000000000000000000000,	 ALU_a =          0,	 ALU_b =         0,	 Data_out =         0,	 Data_mem =         3
Cycle =  12,	 Instruction = 00000000000000000000000000000000,	 ALU_a =          0,	 ALU_b =         0,	 Data_out =         0,	 Data_mem =         3
Cycle =  13,	 Instruction = 00000000000000000000000000000000,	 ALU_a =          0,	 ALU_b =         0,	 Data_out =         0,	 Data_mem =         3
Cycle =  14,	 Instruction = 00000000000000000000000000000000,	 ALU_a =          0,	 ALU_b =         0,	 Data_out =         0,	 Data_mem =         3
Cycle =  15,	 Instruction = 00000000000000000000000000000000,	 ALU_a =          0,	 ALU_b =         0,	 Data_out =         0,	 Data_mem =         3
Cycle =  16,	 Instruction = 00000000000000000000000000000000,	 ALU_a =          0,	 ALU_b =         0,	 Data_out =         0,	 Data_mem =         3
Cycle =  17,	 Instruction = 00000000000000000000000000000000,	 ALU_a =          0,	 ALU_b =         0,	 Data_out =         0,	 Data_mem =         3
Cycle =  18,	 Instruction = 00000000000000000000000000000000,	 ALU_a =          0,	 ALU_b =         0,	 Data_out =         0,	 Data_mem =         3
Cycle =  19,	 Instruction = 00000000000000000000000000000000,	 ALU_a =          0,	 ALU_b =         0,	 Data_out =         0,	 Data_mem =         3
Cycle =  20,	 Instruction = 00000000000000000000000000000000,	 ALU_a =          0,	 ALU_b =         0,	 Data_out =         0,	 Data_mem =         3
Cycle =  21,	 Instruction = 00000000000000000000000000000000,	 ALU_a =          0,	 ALU_b =         0,	 Data_out =         0,	 Data_mem =         3
Cycle =  22,	 Instruction = 00000000000000000000000000000000,	 ALU_a =          0,	 ALU_b =         0,	 Data_out =         0,	 Data_mem =         3
Cycle =  23,	 Instruction = 00000000000000000000000000000000,	 ALU_a =          0,	 ALU_b =         0,	 Data_out =         0,	 Data_mem =         3
Cycle =  24,	 Instruction = 00000000000000000000000000000000,	 ALU_a =          0,	 ALU_b =         0,	 Data_out =         0,	 Data_mem =         3
Cycle =  25,	 Instruction = 00000000000000000000000000000000,	 ALU_a =          0,	 ALU_b =         0,	 Data_out =         0,	 Data_mem =         3
